{
  "timeStamp": "2020-02-24 20:58:16.678789"
}{
  "timeStamp": "2020-02-24 21:10:32.467518",
  "name": "Alert Message",
  "hasError": false,
  "command": 0,
  "errCode": 0,
  "statusCode": 0,
  "stateData": null,
  "curValue": 0.0
}{
  "timeStamp": "2020-02-24 21:11:33.039992",
  "name": "Alert Message",
  "hasError": false,
  "command": 0,
  "errCode": 0,
  "statusCode": 0,
  "stateData": null,
  "curValue": 0.0
}